HTE Analysis in an Experiment
…
prepped_data %>%
    estimate_QoI(x1, x2, x3, x4, x5) -> results

## Error in model.frame.default(Terms, newdata, na.action = na.action, xlev = object$xlevels) : 
##   factor x2 has new levels 1
## Error in model.frame.default(Terms, newdata, na.action = na.action, xlev = object$xlevels) : 
##   factor x2 has new levels 1

results

## # A tibble: 839 × 6
##    estimand term  value level estimate std_error
##    <chr>    <chr> <dbl> <chr>    <dbl>     <dbl>
##  1 MCATE    x1    -1.80 <NA>      3.22     0.173
##  2 MCATE    x1    -1.71 <NA>      3.11     0.166
##  3 MCATE    x1    -1.58 <NA>      2.96     0.157
##  4 MCATE    x1    -1.47 <NA>      2.84     0.149
##  5 MCATE    x1    -1.40 <NA>      2.78     0.145
##  6 MCATE    x1    -1.35 <NA>      2.73     0.142
##  7 MCATE    x1    -1.30 <NA>      2.69     0.139
##  8 MCATE    x1    -1.26 <NA>      2.65     0.137
##  9 MCATE    x1    -1.21 <NA>      2.60     0.135
## 10 MCATE    x1    -1.16 <NA>      2.56     0.134
## # ℹ 829 more rows
…
