HTE Analysis on Observational Data
…
data %>%
    attach_config(hte_cfg) %>%
    make_splits(uid, .num_splits = 3) %>%
    produce_plugin_estimates(
        y,
        a,
        x1, x2, x3, x4, x5,
    ) -> prepped_data

construct_pseudo_outcomes(prepped_data, y, a) %>%
    estimate_QoI(x1, x2, x3, x4, x5) -> results

results

## # A tibble: 853 × 6
##    estimand term  value level estimate std_error
##    <chr>    <chr> <dbl> <chr>    <dbl>     <dbl>
##  1 MCATE    x1    -1.79 <NA>      4.07     0.556
##  2 MCATE    x1    -1.72 <NA>      3.95     0.507
##  3 MCATE    x1    -1.63 <NA>      3.78     0.438
##  4 MCATE    x1    -1.53 <NA>      3.62     0.382
##  5 MCATE    x1    -1.43 <NA>      3.44     0.324
##  6 MCATE    x1    -1.34 <NA>      3.29     0.280
##  7 MCATE    x1    -1.25 <NA>      3.15     0.245
##  8 MCATE    x1    -1.20 <NA>      3.07     0.227
##  9 MCATE    x1    -1.17 <NA>      3.02     0.218
## 10 MCATE    x1    -1.13 <NA>      2.96     0.206
## # ℹ 843 more rows
…
